{
    "pageIndex": 1,
    "pageSize": 10,
    "totalRecords": 101,
    "totalPages": 11,
    "hasPreviousPage": false,
    "hasNextPage": true,
    "success": true,
    "message": "Lấy danh sách khung giờ thành công",
    "statusCode": 200,
    "data": [
        {
            "id": 133,
            "fieldId": 13,
            "startTime": "06:00:00",
            "endTime": "07:30:00",
            "price": 240000.00,
            "isActive": true,
            "createdAt": "2025-12-18T10:07:25.5066382",
            "updatedAt": "2025-12-21T00:22:26.0021482",
            "fieldName": "Sân 1",
            "complexId": 4,
            "complexName": "Sân Bóng BKX"
        },
        {
            "id": 134,
            "fieldId": 13,
            "startTime": "07:30:00",
            "endTime": "09:00:00",
            "price": 240000.00,
            "isActive": true,
            "createdAt": "2025-12-18T10:07:25.5066382",
            "updatedAt": "2025-12-20T20:37:59.1865198",
            "fieldName": "Sân 1",
            "complexId": 4,
            "complexName": "Sân Bóng BKX"
        },
        {
            "id": 135,
            "fieldId": 13,
            "startTime": "09:00:00",
            "endTime": "10:30:00",
            "price": 300000.00,
            "isActive": true,
            "createdAt": "2025-12-18T10:07:25.5066382",
            "updatedAt": "2025-12-21T00:21:14.2391796",
            "fieldName": "Sân 1",
            "complexId": 4,
            "complexName": "Sân Bóng BKX"
        },
        {
            "id": 136,
            "fieldId": 13,
            "startTime": "10:30:00",
            "endTime": "12:00:00",
            "price": 300000.00,
            "isActive": true,
            "createdAt": "2025-12-18T10:07:25.5066382",
            "updatedAt": "2025-12-18T10:07:25.5066382",
            "fieldName": "Sân 1",
            "complexId": 4,
            "complexName": "Sân Bóng BKX"
        },
        {
            "id": 137,
            "fieldId": 13,
            "startTime": "12:00:00",
            "endTime": "13:30:00",
            "price": 300000.00,
            "isActive": true,
            "createdAt": "2025-12-18T10:07:25.5066382",
            "updatedAt": "2025-12-18T10:07:25.5066382",
            "fieldName": "Sân 1",
            "complexId": 4,
            "complexName": "Sân Bóng BKX"
        },
        {
            "id": 138,
            "fieldId": 13,
            "startTime": "13:30:00",
            "endTime": "15:00:00",
            "price": 300000.00,
            "isActive": true,
            "createdAt": "2025-12-18T10:07:25.5066382",
            "updatedAt": "2025-12-18T10:07:25.5066382",
            "fieldName": "Sân 1",
            "complexId": 4,
            "complexName": "Sân Bóng BKX"
        },
        {
            "id": 139,
            "fieldId": 13,
            "startTime": "15:00:00",
            "endTime": "16:30:00",
            "price": 300000.00,
            "isActive": true,
            "createdAt": "2025-12-18T10:07:25.5066382",
            "updatedAt": "2025-12-18T10:07:25.5066382",
            "fieldName": "Sân 1",
            "complexId": 4,
            "complexName": "Sân Bóng BKX"
        },
        {
            "id": 140,
            "fieldId": 13,
            "startTime": "16:30:00",
            "endTime": "18:00:00",
            "price": 390000.00,
            "isActive": true,
            "createdAt": "2025-12-18T10:07:25.5066382",
            "updatedAt": "2025-12-18T10:07:25.5066382",
            "fieldName": "Sân 1",
            "complexId": 4,
            "complexName": "Sân Bóng BKX"
        },
        {
            "id": 141,
            "fieldId": 13,
            "startTime": "18:00:00",
            "endTime": "19:30:00",
            "price": 390000.00,
            "isActive": true,
            "createdAt": "2025-12-18T10:07:25.5066382",
            "updatedAt": "2025-12-18T10:07:25.5066382",
            "fieldName": "Sân 1",
            "complexId": 4,
            "complexName": "Sân Bóng BKX"
        },
        {
            "id": 144,
            "fieldId": 14,
            "startTime": "06:00:00",
            "endTime": "07:30:00",
            "price": 240000.00,
            "isActive": true,
            "createdAt": "2025-12-18T10:07:25.5066382",
            "updatedAt": "2025-12-18T10:07:25.5066382",
            "fieldName": "Sân 2",
            "complexId": 4,
            "complexName": "Sân Bóng BKX"
        }
    ],
    "errors": null
}